module gitlab.com/tradezone/customer-service

go 1.19

require (
	github.com/golang/protobuf v1.5.2
	github.com/jmoiron/sqlx v1.3.5
	github.com/lib/pq v1.10.7
	github.com/segmentio/kafka-go v0.4.38
	github.com/spf13/cast v1.5.0
	go.uber.org/zap v1.24.0
	google.golang.org/grpc v1.52.3
)

require (
	github.com/klauspost/compress v1.15.9 // indirect
	github.com/pierrec/lz4/v4 v4.1.15 // indirect
	go.uber.org/atomic v1.7.0 // indirect
	go.uber.org/multierr v1.6.0 // indirect
	golang.org/x/net v0.4.0 // indirect
	golang.org/x/sys v0.3.0 // indirect
	golang.org/x/text v0.5.0 // indirect
	google.golang.org/genproto v0.0.0-20221118155620-16455021b5e6 // indirect
	google.golang.org/protobuf v1.28.1 // indirect
)
